module geo

go 1.19

require (
	github.com/confluentinc/confluent-kafka-go v1.9.2
	github.com/ekomobile/dadata/v2 v2.10.0
	github.com/lib/pq v1.10.9
	github.com/redis/go-redis/v9 v9.5.1
	github.com/streadway/amqp v1.1.0
	gitlab.com/noleeen/protogeo v1.0.5
	gitlab.com/ptflp/gopubsub v1.1.2
	golang.org/x/sync v0.6.0
	google.golang.org/grpc v1.62.1
)

require (
	github.com/IBM/sarama v1.43.1 // indirect
	github.com/cespare/xxhash/v2 v2.2.0 // indirect
	github.com/davecgh/go-spew v1.1.1 // indirect
	github.com/dgryski/go-rendezvous v0.0.0-20200823014737-9f7001d12a5f // indirect
	github.com/eapache/go-resiliency v1.6.0 // indirect
	github.com/eapache/go-xerial-snappy v0.0.0-20230731223053-c322873962e3 // indirect
	github.com/eapache/queue v1.1.0 // indirect
	github.com/golang/protobuf v1.5.3 // indirect
	github.com/golang/snappy v0.0.4 // indirect
	github.com/hashicorp/errwrap v1.0.0 // indirect
	github.com/hashicorp/go-multierror v1.1.1 // indirect
	github.com/hashicorp/go-uuid v1.0.3 // indirect
	github.com/jcmturner/aescts/v2 v2.0.0 // indirect
	github.com/jcmturner/dnsutils/v2 v2.0.0 // indirect
	github.com/jcmturner/gofork v1.7.6 // indirect
	github.com/jcmturner/gokrb5/v8 v8.4.4 // indirect
	github.com/jcmturner/rpc/v2 v2.0.3 // indirect
	github.com/klauspost/compress v1.17.7 // indirect
	github.com/pierrec/lz4/v4 v4.1.21 // indirect
	github.com/rcrowley/go-metrics v0.0.0-20201227073835-cf1acfcdf475 // indirect
	golang.org/x/crypto v0.21.0 // indirect
	golang.org/x/net v0.22.0 // indirect
	golang.org/x/sys v0.18.0 // indirect
	golang.org/x/text v0.14.0 // indirect
	google.golang.org/genproto/googleapis/rpc v0.0.0-20240123012728-ef4313101c80 // indirect
	google.golang.org/protobuf v1.33.0 // indirect
)
