module proxy

go 1.19

require (
	github.com/go-chi/chi v1.5.5
	github.com/go-chi/jwtauth v1.2.0
	gitlab.com/noleeen/protogeo v1.0.5
	golang.org/x/sync v0.6.0
	google.golang.org/grpc v1.62.1
)

require (
	github.com/goccy/go-json v0.3.5 // indirect
	github.com/golang/protobuf v1.5.3 // indirect
	github.com/lestrrat-go/backoff/v2 v2.0.7 // indirect
	github.com/lestrrat-go/httpcc v1.0.0 // indirect
	github.com/lestrrat-go/iter v1.0.0 // indirect
	github.com/lestrrat-go/jwx v1.1.0 // indirect
	github.com/lestrrat-go/option v1.0.0 // indirect
	github.com/pkg/errors v0.9.1 // indirect
	golang.org/x/crypto v0.18.0 // indirect
	golang.org/x/net v0.20.0 // indirect
	golang.org/x/sys v0.16.0 // indirect
	golang.org/x/text v0.14.0 // indirect
	google.golang.org/genproto/googleapis/rpc v0.0.0-20240123012728-ef4313101c80 // indirect
	google.golang.org/protobuf v1.33.0 // indirect
)
